^C:\USERS\ACER\SOURCE\REPOS\LAB7\TASK 2\TASK 2.CPP
C:\USERS\ACER\SOURCE\REPOS\LAB7\TASK 2\DEBUG\VC142.PDB
C:\USERS\ACER\SOURCE\REPOS\LAB7\TASK 2\DEBUG\VC142.IDB
C:\USERS\ACER\SOURCE\REPOS\LAB7\TASK 2\DEBUG\TASK 2.OBJ
